<svg width="150" height="150" viewBox="0 0 150 150" fill="none" xmlns="http://www.w3.org/2000/svg">
<rect width="150" height="150" rx="10" fill="#1C1C1C"/>
<path d="M53.738 41.0618C53.6824 41.0927 53.6022 41.21 53.5589 41.3211C53.5096 41.4323 53.4169 41.6607 53.3367 41.8336C53.2626 42.0003 53.0156 42.5869 52.7871 43.1303C52.0955 44.7852 50.9656 47.4403 50.8729 47.6379C50.8297 47.7367 50.6877 48.0701 50.5642 48.3789C50.4345 48.6814 50.2678 49.0828 50.1875 49.2618C50.1073 49.4409 50.0393 49.6015 50.0393 49.6138C50.0393 49.6262 49.9714 49.7867 49.8912 49.9658C49.8109 50.1448 49.4651 50.9476 49.1255 51.7441C46.4148 58.1226 42.8458 66.2424 40.839 70.6079C40.7278 70.8426 40.3265 71.7318 39.9436 72.5839C39.5608 73.4298 39.1594 74.319 39.0483 74.5598C38.9372 74.7944 38.6716 75.381 38.4617 75.8565C38.2456 76.3319 37.9677 76.9432 37.8442 77.2149C37.7146 77.4866 37.4367 78.0979 37.2267 78.5734C37.0106 79.0488 36.3746 80.4505 35.8066 81.6916C34.4358 84.6925 34.5222 84.5011 34.0468 85.5508C33.8183 86.0572 33.5404 86.6685 33.4293 86.9093C33.3181 87.1439 33.1699 87.4774 33.0897 87.6502C33.0156 87.817 32.8736 88.1257 32.7809 88.3295C30.3543 93.6027 29.9652 94.498 30.0023 94.6956C30.0455 94.9426 30.2369 95.0908 30.5086 95.0908C30.7247 95.0908 32.077 94.6586 34.6025 93.7756C35.4361 93.4854 36.7575 93.0285 37.5355 92.7568C39.4497 92.0899 45.6368 89.9349 47.1681 89.3977C47.8473 89.1631 49.0823 88.7308 49.9159 88.4406C51.6077 87.8602 52.5648 87.5206 53.4355 87.218C54.0776 86.9896 57.1774 85.909 59.178 85.2174C59.9869 84.9334 60.487 84.7296 60.5735 84.637C60.7031 84.5073 60.9563 83.8281 61.8949 81.1359C62.1357 80.4381 62.4012 79.691 62.4815 79.4687C62.6976 78.8821 62.9816 78.0732 63.315 77.0914C63.4818 76.616 63.7164 75.9368 63.8399 75.5786C64.8526 72.7012 66.6494 67.3909 67.1125 65.8843C67.1928 65.6311 67.4398 64.8346 67.6682 64.1245C68.0943 62.766 68.7056 60.8024 68.8414 60.327C68.8847 60.1726 69.039 59.6725 69.1811 59.2155C69.3231 58.7586 69.4774 58.2523 69.5268 58.0856C69.6874 57.5545 69.78 57.2273 70.5086 54.8315C70.8976 53.5224 71.2805 52.2751 71.3422 52.059C71.5028 51.5403 71.4966 51.4724 71.299 51.2563C70.9964 50.9352 66.1431 47.7614 63.9325 46.4338C62.7593 45.7299 59.9498 44.1553 58.5914 43.4391C58.2209 43.2415 57.8874 43.0624 57.8504 43.0377C57.659 42.9019 53.985 41 53.9171 41C53.8739 41 53.7936 41.0309 53.738 41.0618Z" fill="#404040"/>
<path d="M106.569 52.0521C103.198 52.3794 102.803 52.4164 101.598 52.5461C98.616 52.8548 96.0535 53.2253 93.4169 53.7255C90.7988 54.2195 88.8908 54.5961 88.7179 54.6517C88.3474 54.769 88.3104 54.8616 88.1931 56.0225C87.625 61.4686 86.9458 68.4276 86.7791 70.5887C86.7297 71.2185 86.6 73.0463 86.4394 75.3309C86.3653 76.3868 86.1616 79.7026 86.0998 80.7956C86.069 81.4377 86.0257 82.1355 86.0072 82.3393C85.9949 82.543 85.964 83.0555 85.9455 83.4816C85.9269 83.9076 85.8961 84.3893 85.8837 84.5622C85.8652 84.7289 85.8405 85.1611 85.822 85.5193C85.7602 86.7419 85.6676 88.5758 85.6367 89.0697C85.612 89.4711 85.6244 89.5946 85.7108 89.7304C85.7726 89.8231 86.2789 90.3047 86.8408 90.8048C87.4027 91.305 88.3474 92.1448 88.9402 92.6758C92.0276 95.4359 95.4607 98.5109 97.0291 99.9064C97.9986 100.771 99.2891 101.919 99.8942 102.469C103.253 105.47 108.527 110.163 108.774 110.366C109.385 110.867 109.428 110.897 109.638 110.897C109.786 110.897 109.897 110.848 110.002 110.737C110.138 110.589 110.15 110.539 110.138 109.953C110.12 109.082 110.002 105.643 109.965 104.815C109.953 104.439 109.922 103.648 109.903 103.056C109.885 102.463 109.842 101.185 109.811 100.215C109.78 99.2457 109.724 97.6094 109.687 96.5721C109.619 94.4294 109.576 93.1389 109.533 91.941C109.514 91.4841 109.471 90.1071 109.44 88.8845C109.409 87.6619 109.366 86.3837 109.348 86.0441C109.335 85.7045 109.305 84.803 109.286 84.0373C109.267 83.2716 109.237 82.3701 109.224 82.0305C109.212 81.6909 109.181 80.6227 109.163 79.6532C109.144 78.6838 109.113 77.7144 109.101 77.4921C109.088 77.2698 109.058 75.9669 109.039 74.59C109.02 73.213 108.996 71.7249 108.977 71.2865C108.959 70.8419 108.934 68.3843 108.909 65.8218C108.891 63.2593 108.866 60.8264 108.854 60.4189C108.841 60.0114 108.829 57.9861 108.829 55.9237L108.823 52.1695L108.669 52.0213C108.588 51.9348 108.483 51.8731 108.44 51.8731C108.397 51.8792 107.557 51.9595 106.569 52.0521Z" fill="#404040"/>
</svg>
