<svg
        width="20"
        height="19"
        viewBox="0 0 20 19"
>
    <path
            fillRule="evenodd"
            clipRule="evenodd"
            d="M20 7.24L12.81 6.62L10 0L7.19 6.63L0 7.24L5.46 11.97L3.82 19L10 15.27L16.18 19L14.55 11.97L20 7.24ZM10 13.4V4.1L11.71 8.14L16.09 8.52L12.77 11.4L13.77 15.68L10 13.4Z"
    />
</svg>
