<?xml version="1.0" standalone="no"?>
<!DOCTYPE svg PUBLIC "-//W3C//DTD SVG 20010904//EN"
 "http://www.w3.org/TR/2001/REC-SVG-20010904/DTD/svg10.dtd">
<svg version="1.0" xmlns="http://www.w3.org/2000/svg"
 width="250.000000pt" height="265.000000pt" viewBox="0 0 250.000000 265.000000"
 preserveAspectRatio="xMidYMid meet">

<g transform="translate(0.000000,265.000000) scale(0.100000,-0.100000)"
stroke="none">
<path d="M900 2619 c-210 -25 -423 -131 -581 -288 -151 -151 -250 -346 -280
-552 -14 -101 -6 -310 16 -391 76 -281 276 -529 530 -655 141 -71 295 -106
460 -105 184 0 344 45 506 143 l83 50 22 -23 c11 -13 165 -185 341 -383 176
-198 327 -366 335 -373 9 -7 31 -15 50 -18 64 -11 116 67 85 130 -8 17 -168
203 -356 413 l-340 383 55 72 c73 96 137 230 170 353 34 128 38 324 10 450
-85 380 -366 673 -736 768 -110 29 -261 39 -370 26z m286 -144 c288 -51 546
-264 648 -536 83 -221 71 -469 -33 -686 -110 -228 -315 -397 -566 -464 -103
-28 -296 -31 -397 -6 -175 43 -312 119 -429 240 -158 162 -241 364 -242 587 0
186 46 343 144 490 193 289 533 434 875 375z"/>
</g>
</svg>
